﻿{
    "type": "crafting_shaped",
    "pattern": [
        "##",
        "##"
    ],
    "key": {
        "#": {
            "item": "minecraft:purpur_pillar"
        }
    },
    "result": {
        "item": "minecraft:purpur_block",
        "count": 4
    }
}