﻿{
    "type": "crafting_shaped",
    "pattern": [
        "#",
        "#"
    ],
    "key": {
        "#": {
            "item": "minecraft:snow"
        }
    },
    "result": {
        "item": "minecraft:snow_block",
        "count": 1
    }
}