{
  "name": "bronze",
  "disable": false,
  "tier": 2,
  "color": "ec9e3f",
  "armorPoints": 3,
  "enchantability": 9,
  "craftingMaterial": "tag:forge:ingots/bronze",
  "rarity": 0,
  "capacity": 800000,
  "usage": 120,
  "speedVertical": 0.41,
  "accelVertical": 0.12,
  "speedSideways": 0.14,
  "speedHoverDescend": 0.27,
  "speedHover": 0.075,
  "sprintSpeedMulti": 1.1,
  "sprintFuelMulti": 2.1
}