{
    "flower": "botania:blaze_block",
    "maxTimeInHive": 2400,
    "traits": ["blaze", "nether"],
    "hasHoneycomb": true,
    "baseLayerTexture": "/custom/bee",
    "ColorData": {
        "primaryColor": "#BD5900",
        "secondaryColor": "#BD5900",
        "honeycombColor": "#BD5900",
        "primaryLayerTexture": "/custom/primary_layer",
        "secondaryLayerTexture": "/custom/secondary_layer",
        "emissiveLayerTexture": "empty_layer",
        "isBeeColored": true,
        "isRainbowBee": false,
        "isGlowing": false,
        "glowColor": "#E400FF",
        "isEnchanted": false,
        "glowingPulse": 0,
        "modelType": "DEFAULT"
    },
    "CombatData": {
        "isPassive": true,
        "removeStingerOnAttack": true,
        "inflictsPoison": true,
        "attackDamage": 1
    },
    "MutationData": {
        "hasMutation": true,
        "mutationCount": 1,
        "mutations": [{
            "type": "BLOCK_TO_ITEM",
            "inputID": "resourcefulbees:blazing_honeycomb_block",
            "outputs": [{
                    "outputID": "minecraft:blaze_rod",
                    "weight": 80
                },
                {
                    "outputID": "resourcefulbees:blazing_bee_spawn_egg",
                    "weight": 20
                }
            ]
        }]
    },
    "CentrifugeData": {
        "hasCentrifugeOutput": true,
        "mainInputCount": 1,
        "mainOutput": "minecraft:blaze_rod",
        "mainOutputWeight": 0.50,
        "mainOutputCount": 1,
        "mainNBTData": {},
        "secondaryOutput": "minecraft:blaze_powder",
        "secondaryOutputWeight": 0.10,
        "secondaryOutputCount": 2,
        "secondaryNBTData": {},
        "bottleOutput": "minecraft:honey_bottle",
        "bottleOutputWeight": 0.25,
        "bottleOutputCount": 1,
        "bottleNBTData": {},
        "recipeTime": 200,
        "hasFluidOutput": false
    },
    "SpawnData": {
        "canSpawnInWorld": false,
        "biomeWhitelist": "",
        "biomeBlacklist": "",
        "spawnWeight": 2,
        "minYLevel": 0,
        "maxYLevel": 255,
        "minGroupSize": 1,
        "maxGroupSize": 3,
        "lightLevel": "ANY"
    },
    "BreedData": {
        "isBreedable": true,
        "parent1": "Magma",
        "parent2": "Spooky",
        "breedWeight": 10,
        "breedChance": 0.60,
        "feedItem": "xreliquary:molten_core",
        "feedAmount": 5,
        "childGrowthDelay": -24000,
        "breedDelay": 6000
    },
    "TraitData": {
        "hasTraits": true
    }
}